…
ℹ Use `spec()` to retrieve the full column specification for this data.
ℹ Specify the column types or set `show_col_types = FALSE` to quiet this message.
> print(normal.data)
# A tibble: 10,000 × 10
   truth_total_effect ols_total_effect truth_direct_effect ols_direct_effect
                <dbl>            <dbl>               <dbl>             <dbl>
 1               2.61             2.62                1.40             0.941
 2               2.62             2.52                1.38             0.881
 3               2.57             2.60                1.39             0.864
 4               2.66             2.63                1.39             1.01 
 5               2.61             2.70                1.36             1.05 
 6               2.54             2.57                1.36             1.12 
 7               2.58             2.53                1.39             0.745
 8               2.61             2.49                1.39             0.652
 9               2.56             2.55                1.37             0.751
10               2.58             2.53                1.39             0.913
# ℹ 9,990 more rows
# ℹ 6 more variables: heckit_direct_effect <dbl>, cf_direct_effect <dbl>,
#   truth_indirect_effect <dbl>, ols_indirect_effect <dbl>,
#   heckit_indirect_effect <dbl>, cf_indirect_effect <dbl>
> 
> # Load data from uniform DGP-strapping 10,000 times.
> uniform.data <- read_csv(file.path(output.folder, "uniform-cf-data.csv"))
Rows: 10000 Columns: 8
── Column specification ────────────────────────────────────────────────────────
Delimiter: ","
dbl (8): truth_direct_effect, ols_direct_effect, heckit_direct_effect, cf_di...

ℹ Use `spec()` to retrieve the full column specification for this data.
ℹ Specify the column types or set `show_col_types = FALSE` to quiet this message.
> print(uniform.data)
# A tibble: 10,000 × 8
   truth_direct_effect ols_direct_effect heckit_direct_effect cf_direct_effect
                 <dbl>             <dbl>                <dbl>            <dbl>
 1                1.34             0.939                1.72              1.98
 2                1.39             0.947                1.01              1.11
 3                1.37             1.01                 0.961             1.11
 4                1.37             0.881                1.59              1.82
 5                1.38             0.934                1.43              1.46
 6                1.38             1.05                 1.35              1.45
 7                1.38             0.994                1.71              1.70
 8                1.40             1.13                 1.48              1.66
 9                1.38             0.927                1.33              1.48
10                1.41             1.02                 1.09              1.20
# ℹ 9,990 more rows
# ℹ 4 more variables: truth_indirect_effect <dbl>, ols_indirect_effect <dbl>,
#   heckit_indirect_effect <dbl>, cf_indirect_effect <dbl>
…
