…
ℹ Use `spec()` to retrieve the full column specification for this data.
ℹ Specify the column types or set `show_col_types = FALSE` to quiet this message.
> print(sim.data)
# A tibble: 10,000 × 6
   truth_direct_effect ols_direct_effect cf_direct_effect truth_indirect_effect
                 <dbl>             <dbl>            <dbl>                 <dbl>
 1                1.46             0.925             1.71                 0.822
 2                1.46             0.839             2.05                 0.822
 3                1.46             1.21              1.73                 0.822
 4                1.46             0.882             1.40                 0.822
 5                1.46             1.04              1.70                 0.822
 6                1.46             0.974             1.58                 0.822
 7                1.46             1.02              1.53                 0.822
 8                1.46             1.07              1.33                 0.822
 9                1.46             1.03              1.58                 0.822
10                1.46             1.17              1.36                 0.822
# ℹ 9,990 more rows
# ℹ 2 more variables: ols_indirect_effect <dbl>, cf_indirect_effect <dbl>
…
