…
ℹ Use `spec()` to retrieve the full column specification for this data.
ℹ Specify the column types or set `show_col_types = FALSE` to quiet this message.
> print(boot.data)
# A tibble: 100 × 6
   truth_direct_effect ols_direct_effect cf_direct_effect truth_indirect_effect
                 <dbl>             <dbl>            <dbl>                 <dbl>
 1                1.44             0.575             1.31                  1.13
 2                1.44             0.565             1.41                  1.13
 3                1.44             0.531             1.39                  1.13
 4                1.44             0.526             1.34                  1.13
 5                1.44             0.589             1.47                  1.13
 6                1.44             0.539             1.37                  1.13
 7                1.44             0.515             1.34                  1.13
 8                1.44             0.527             1.55                  1.13
 9                1.44             0.508             1.28                  1.13
10                1.44             0.588             1.41                  1.13
# ℹ 90 more rows
# ℹ 2 more variables: ols_indirect_effect <dbl>, cf_indirect_effect <dbl>
…
