…
ℹ Use `spec()` to retrieve the full column specification for this data.
ℹ Specify the column types or set `show_col_types = FALSE` to quiet this message.
> print(sim.data)
# A tibble: 10,000 × 6
   truth_direct_effect ols_direct_effect cf_direct_effect truth_indirect_effect
                 <dbl>             <dbl>            <dbl>                 <dbl>
 1                1.42             1.04              1.42                 0.853
 2                1.40             0.959             1.44                 0.918
 3                1.39             1.07              1.49                 0.820
 4                1.38             0.981             1.17                 0.826
 5                1.39             0.956             1.44                 0.848
 6                1.37             1.14              1.29                 0.834
 7                1.40             1.05              1.23                 0.847
 8                1.39             1.15              1.20                 0.795
 9                1.39             1.19              1.44                 0.739
10                1.41             1.06              1.42                 0.801
# ℹ 9,990 more rows
# ℹ 2 more variables: ols_indirect_effect <dbl>, cf_indirect_effect <dbl>
…
